UK REF Impact Case Studies
…
## [1]  2 19

Unfortunately, the API method requires at least one search parameter, which makes it more difficult to download the entire dataset. A short script for this purpose is included at the end of this vignette.

Useful values for the UKPRN, UoA and tags parameters can be found by querying the other 4 API methods - the phrase parameter is the only parameter which can be used in isolation. Each of the 4 other API methods are outlined below.

ListInstitutions

This method lists all of the institutions which are included in the REF Impact Case Studies database, and the UKPRN column in the resuling tibble can be used as a query parameter

institutions <- ref_get("ListInstitutions")
print(institutions)

## # A tibble: 155 x 5
##                             AlternativeName
##  *                                    <chr>
##  1                          Open University
##  2                     Cranfield University
##  3                     Royal College of Art
##  4            Bishop Grosseteste University
##  5           Buckinghamshire New University
##  6 Royal Central School of Speech and Drama
##  7                  Chester (University of)
##  8      Canterbury Christ Church University
##  9                  York St John University
## 10                     Edge Hill University
## # ... with 145 more rows, and 4 more variables: InstitutionName <chr>,
## #   PeerGroup <chr>, Region <chr>, UKPRN <int>
…
These tag types can then be used as an argument to the ListTagValues method, to get all tags for each type:

tag_values_5 <- ref_get("ListTagValues", tag_type = 5)
print(tag_values_5)

## # A tibble: 252 x 2
##       ID                         Name
##  * <int>                        <chr>
##  1 11280                  Afghanistan
##  2 11310                Aland Islands
##  3 11116                      Albania
##  4 11106                      Algeria
##  5 25129 American Samoa, Territory of
##  6 11221                      Andorra
##  7 11185                       Angola
##  8 11301                     Anguilla
##  9 11187          Antigua and Barbuda
## 10 11328                    Argentina
## # ... with 242 more rows

This can take some time to iterate through, so the full table is bundled with this package. You can access it via ref_tags:

print(ref_tags)

## # A tibble: 9,400 x 4
##       ID                                    Name TypeID    TagType
##  * <int>                                   <chr>  <int>      <chr>
##  1  5083                                Cultural      1 ImpactType
##  2  5086                                Economic      1 ImpactType
##  3  5087                           Environmental      1 ImpactType
##  4  5082                                  Health      1 ImpactType
##  5  5081                                   Legal      1 ImpactType
##  6  5080                               Political      1 ImpactType
##  7  5085                                Societal      1 ImpactType
##  8  5084                           Technological      1 ImpactType
##  9   911 Accounting, Auditing and Accountability      3    Subject
## 10  1022                   Aerospace Engineering      3    Subject
## # ... with 9,390 more rows

ListUnitsOfAssessment

This method lists all of the units of assessment which the Impact Case Studies can be assessed against. The tibble also includes an ID column which can be used when querying the SearchCaseStudies method.

UoAs <- ref_get("ListUnitsOfAssessment")
print(UoAs)

## # A tibble: 36 x 3
##       ID      Panel
##  * <int>      <chr>
##  1     1 A         
##  2     2 A         
##  3     3 A         
##  4     4 A         
##  5     5 A         
##  6     6 A         
##  7     7 B         
##  8     8 B         
##  9     9 B         
## 10    10 B         
## # ... with 26 more rows, and 1 more variables: Subject <chr>
…
